# 3ds Max Wavefront OBJ Exporter v0.97b - (c)2007 guruware
# File Created: 30.01.2020 15:18:31

mtllib Bow.mtl

#
# object Cylinder002
#

v  3.4493 -0.0000 -0.0000
v  4.2325 1.1881 -0.0000
v  4.3617 1.1861 -4.3694
v  3.6795 -0.0000 -4.3657
v  5.5190 1.1861 -0.0000
v  5.4478 1.1881 -4.3770
v  6.0322 -0.0000 0.0000
v  5.9645 -0.0000 -4.3808
v  5.5190 -1.1861 0.0000
v  5.4478 -1.1881 -4.3770
v  4.2325 -1.1881 0.0000
v  4.3617 -1.1861 -4.3694
v  4.5894 0.7551 -6.5344
v  3.0199 0.7551 -11.5755
v  2.6248 -0.0000 -11.3913
v  4.1535 -0.0000 -6.5344
v  5.4613 0.7551 -6.5344
v  3.8102 0.7551 -11.9440
v  5.8973 -0.0000 -6.5344
v  4.2053 -0.0000 -12.1282
v  5.4613 -0.7551 -6.5344
v  3.8102 -0.7551 -11.9440
v  4.5894 -0.7551 -6.5344
v  3.0199 -0.7551 -11.5755
v  0.6869 0.7551 -15.9585
v  0.3298 -0.0000 -15.7085
v  1.4011 0.7551 -16.4586
v  1.7582 -0.0000 -16.7087
v  1.4011 -0.7551 -16.4586
v  0.6869 -0.7551 -15.9585
v  -1.6164 0.7551 -19.0871
v  -4.8686 0.7551 -22.2036
v  -5.3046 -0.0000 -22.2036
v  -2.0115 -0.0000 -18.9029
v  -0.8261 0.7551 -19.4556
v  -3.9967 0.7551 -22.2036
v  -0.4310 -0.0000 -19.6399
v  -3.5608 -0.0000 -22.2036
v  -0.8261 -0.7551 -19.4556
v  -3.9967 -0.7551 -22.2036
v  -1.6164 -0.7551 -19.0871
v  -4.8686 -0.7551 -22.2036
v  4.6130 0.7551 -4.9557
v  4.1770 -0.0000 -4.8307
v  5.4849 0.7551 -5.1014
v  5.9208 -0.0000 -5.1014
v  5.4849 -0.7551 -5.1014
v  4.6130 -0.7551 -4.9557
v  -6.0322 -0.0000 -23.5680
v  3.6795 0.0000 4.3657
v  4.3617 1.1861 4.3694
v  5.4478 1.1881 4.3770
v  5.9645 0.0000 4.3808
v  5.4478 -1.1881 4.3770
v  4.3617 -1.1861 4.3694
v  4.5894 0.7551 6.5344
v  4.1535 0.0000 6.5344
v  2.6248 0.0000 11.3913
v  3.0199 0.7551 11.5755
v  5.4613 0.7551 6.5344
v  3.8101 0.7551 11.9440
v  5.8973 0.0000 6.5344
v  4.2053 0.0000 12.1282
v  5.4613 -0.7551 6.5344
v  3.8101 -0.7551 11.9440
v  4.5894 -0.7551 6.5344
v  3.0199 -0.7551 11.5755
v  0.3298 0.0000 15.7085
v  0.6869 0.7551 15.9585
v  1.4011 0.7551 16.4586
v  1.7582 0.0000 16.7087
v  1.4011 -0.7551 16.4586
v  0.6869 -0.7551 15.9585
v  -1.6164 0.7551 19.0871
v  -2.0115 0.0000 18.9029
v  -5.3046 0.0000 22.2036
v  -4.8686 0.7551 22.2036
v  -0.8261 0.7551 19.4556
v  -3.9967 0.7551 22.2036
v  -0.4310 0.0000 19.6399
v  -3.5608 0.0000 22.2036
v  -0.8261 -0.7551 19.4556
v  -3.9967 -0.7551 22.2036
v  -1.6164 -0.7551 19.0871
v  -4.8686 -0.7551 22.2036
v  4.6130 0.7551 4.9557
v  4.1770 0.0000 4.8307
v  5.4849 0.7551 5.1014
v  5.9208 0.0000 5.1014
v  5.4849 -0.7551 5.1014
v  4.6130 -0.7551 4.9557
v  -6.0322 0.0000 23.5680
v  -4.3498 -0.2177 22.3997
v  -4.8882 -0.5285 22.3997
v  -4.8882 -0.5285 -22.3997
v  -4.3498 -0.2177 -22.3997
v  -4.8882 0.0932 22.3997
v  -4.8882 0.0932 -22.3997
# 98 vertices

vn -1.0000 -0.0000 -0.0000
vn -0.4802 0.8771 -0.0000
vn -0.4720 0.8212 -0.3207
vn -0.9242 0.0000 -0.3820
vn 0.5537 0.8327 -0.0000
vn 0.4976 0.8390 -0.2203
vn 1.0000 -0.0000 0.0000
vn 0.9993 -0.0000 -0.0378
vn 0.5537 -0.8327 0.0000
vn 0.4975 -0.8390 -0.2203
vn -0.4802 -0.8771 0.0000
vn -0.4720 -0.8212 -0.3207
vn -0.4610 0.8846 0.0704
vn -0.4401 0.8788 0.1843
vn -0.9228 0.0000 0.3853
vn -0.9860 0.0000 0.1665
vn 0.5273 0.8452 -0.0871
vn 0.4830 0.8526 -0.1996
vn 0.9890 -0.0000 -0.1481
vn 0.9236 -0.0000 -0.3834
vn 0.5273 -0.8452 -0.0871
vn 0.4830 -0.8526 -0.1996
vn -0.4610 -0.8846 0.0704
vn -0.4401 -0.8788 0.1843
vn -0.4080 0.8759 0.2575
vn -0.8476 0.0000 0.5306
vn 0.4376 0.8556 -0.2765
vn 0.8435 0.0000 -0.5372
vn 0.4376 -0.8556 -0.2765
vn -0.4080 -0.8759 0.2575
vn -0.3675 0.8740 0.3180
vn -0.4486 0.8829 0.1387
vn -0.8194 0.0000 0.5732
vn -0.7550 -0.0000 0.6557
vn 0.3881 0.8449 -0.3682
vn 0.3101 0.7899 -0.5290
vn 0.7309 -0.0000 -0.6825
vn 0.5806 -0.0000 -0.8142
vn 0.3881 -0.8449 -0.3682
vn 0.3101 -0.7899 -0.5290
vn -0.3675 -0.8740 0.3180
vn -0.4486 -0.8829 0.1387
vn -0.5171 0.7644 -0.3851
vn -0.8761 0.0000 -0.4822
vn 0.5227 0.8241 -0.2183
vn 0.9992 -0.0000 -0.0388
vn 0.5227 -0.8241 -0.2183
vn -0.5171 -0.7644 -0.3851
vn -0.7121 -0.0000 -0.7021
vn -0.9242 -0.0000 0.3820
vn -0.4720 0.8212 0.3207
vn 0.4976 0.8390 0.2203
vn 0.9993 -0.0000 0.0378
vn 0.4975 -0.8390 0.2203
vn -0.4720 -0.8212 0.3207
vn -0.4610 0.8846 -0.0704
vn -0.9860 -0.0000 -0.1665
vn -0.9228 0.0000 -0.3853
vn -0.4401 0.8788 -0.1843
vn 0.5273 0.8452 0.0871
vn 0.4830 0.8526 0.1996
vn 0.9890 -0.0000 0.1481
vn 0.9236 -0.0000 0.3834
vn 0.5273 -0.8452 0.0871
vn 0.4830 -0.8526 0.1996
vn -0.4610 -0.8846 -0.0704
vn -0.4401 -0.8788 -0.1843
vn -0.8476 0.0000 -0.5306
vn -0.4080 0.8759 -0.2575
vn 0.4376 0.8556 0.2765
vn 0.8435 0.0000 0.5372
vn 0.4376 -0.8556 0.2765
vn -0.4080 -0.8759 -0.2575
vn -0.3675 0.8740 -0.3180
vn -0.7550 -0.0000 -0.6557
vn -0.8194 -0.0000 -0.5732
vn -0.4486 0.8829 -0.1387
vn 0.3881 0.8449 0.3682
vn 0.3101 0.7899 0.5290
vn 0.7309 -0.0000 0.6825
vn 0.5806 0.0000 0.8142
vn 0.3881 -0.8449 0.3682
vn 0.3101 -0.7899 0.5290
vn -0.3675 -0.8740 -0.3180
vn -0.4486 -0.8829 -0.1387
vn -0.5171 0.7644 0.3851
vn -0.8761 0.0000 0.4822
vn 0.5227 0.8241 0.2183
vn 0.9992 -0.0000 0.0388
vn 0.5227 -0.8241 0.2183
vn -0.5171 -0.7644 0.3851
vn -0.7121 0.0000 0.7021
vn 1.0000 0.0000 -0.0000
vn -0.5000 -0.8660 -0.0000
vn 1.0000 -0.0000 -0.0000
vn -0.5000 0.8660 0.0000
# 96 vertex normals

vt 0.4235 0.9952 -2.2520
vt 0.3777 0.9927 -2.2520
vt 0.3853 0.8689 -2.2520
vt 0.4235 0.8721 -2.2520
vt 0.3368 0.9876 -2.2520
vt 0.3572 0.8628 -2.2520
vt 0.2989 0.9815 -2.2520
vt 0.3203 0.8532 -2.2520
vt 0.5480 0.9815 -2.2520
vt 0.5101 0.9876 -2.2520
vt 0.4896 0.8628 -2.2520
vt 0.5266 0.8532 -2.2520
vt 0.4692 0.9927 -2.2520
vt 0.4616 0.8689 -2.2520
vt 0.3895 0.7803 -2.2520
vt 0.3921 0.5820 -2.2520
vt 0.4234 0.5827 -2.2520
vt 0.4234 0.7778 -2.2520
vt 0.3572 0.7840 -2.2520
vt 0.3614 0.5806 -2.2520
vt 0.3276 0.7849 -2.2520
vt 0.3304 0.5798 -2.2520
vt 0.4897 0.7840 -2.2520
vt 0.4854 0.5806 -2.2520
vt 0.5165 0.5798 -2.2520
vt 0.5193 0.7849 -2.2520
vt 0.4573 0.7803 -2.2520
vt 0.4547 0.5820 -2.2520
vt 0.3922 0.4019 -2.2520
vt 0.4234 0.4027 -2.2520
vt 0.3608 0.4003 -2.2520
vt 0.3305 0.3994 -2.2520
vt 0.4860 0.4003 -2.2520
vt 0.5163 0.3994 -2.2520
vt 0.4546 0.4019 -2.2520
vt 0.3924 0.2623 -2.2520
vt 0.3957 0.1035 -2.2520
vt 0.4234 0.0931 -2.2520
vt 0.4234 0.2582 -2.2520
vt 0.3629 0.2706 -2.2520
vt 0.3745 0.1247 -2.2520
vt 0.3328 0.2738 2.2520
vt 0.3452 0.1340 -2.2520
vt 0.4839 0.2706 -2.2520
vt 0.4723 0.1247 -2.2520
vt 0.5016 0.1340 -2.2520
vt 0.5141 0.2738 2.2520
vt 0.4544 0.2623 -2.2520
vt 0.4511 0.1035 -2.2520
vt 0.3886 0.8439 -2.2520
vt 0.4234 0.8472 -2.2520
vt 0.3556 0.8366 -2.2520
vt 0.3254 0.8318 -2.2520
vt 0.4913 0.8366 -2.2520
vt 0.5215 0.8318 -2.2520
vt 0.4583 0.8439 -2.2520
vt 0.4020 0.0697 -2.2520
vt 0.3889 0.0975 -2.2520
vt 0.3595 0.0355 -2.2520
vt 0.4527 0.0005 -2.2520
vt 0.4498 0.0311 -2.2520
vt 0.4264 0.0510 -2.2520
vt 0.2050 0.0005 -2.2936
vt 0.2047 0.1236 2.2936
vt 0.1666 0.1267 2.2936
vt 0.1593 0.0029 2.2936
vt 0.1385 0.1327 2.2936
vt 0.1184 0.0079 2.2936
vt 0.1015 0.1422 2.2936
vt 0.0805 0.0139 2.2936
vt 0.3294 0.0146 2.2936
vt 0.3077 0.1428 2.2936
vt 0.2708 0.1331 2.2936
vt 0.2916 0.0084 2.2936
vt 0.2428 0.1269 2.2936
vt 0.2507 0.0032 2.2936
vt 0.1705 0.2153 2.2936
vt 0.2044 0.2178 2.2936
vt 0.2038 0.4128 2.2936
vt 0.1725 0.4134 2.2936
vt 0.1382 0.2114 2.2936
vt 0.1419 0.4147 2.2936
vt 0.1086 0.2104 2.2936
vt 0.1108 0.4155 2.2936
vt 0.2706 0.2118 2.2936
vt 0.3002 0.2110 2.2936
vt 0.2968 0.4160 2.2936
vt 0.2658 0.4151 2.2936
vt 0.2383 0.2154 2.2936
vt 0.2351 0.4136 2.2936
vt 0.2033 0.5928 2.2936
vt 0.1721 0.5935 2.2936
vt 0.1407 0.5950 2.2936
vt 0.1104 0.5958 2.2936
vt 0.2962 0.5964 2.2936
vt 0.2659 0.5954 2.2936
vt 0.2345 0.5937 2.2936
vt 0.1719 0.7332 2.2936
vt 0.2029 0.7373 2.2936
vt 0.2024 0.9026 2.2936
vt 0.1747 0.8921 2.2936
vt 0.1424 0.7248 2.2936
vt 0.1536 0.8709 2.2936
vt 0.1122 0.7215 2.2936
vt 0.1243 0.8614 2.2936
vt 0.2634 0.7252 2.2936
vt 0.2936 0.7220 2.2936
vt 0.2808 0.8619 2.2936
vt 0.2514 0.8711 2.2936
vt 0.2339 0.7333 2.2936
vt 0.2302 0.8923 2.2936
vt 0.1698 0.1517 2.2936
vt 0.2046 0.1485 2.2936
vt 0.1367 0.1589 2.2936
vt 0.1065 0.1636 2.2936
vt 0.2724 0.1593 2.2936
vt 0.3026 0.1641 2.2936
vt 0.2394 0.1519 2.2936
vt 0.1809 0.9260 2.2936
vt 0.1383 0.9600 -2.2936
vt 0.1679 0.8981 2.2936
vt 0.2314 0.9954 2.2936
vt 0.2287 0.9647 2.2936
vt 0.2052 0.9448 2.2936
vt 0.0233 0.0032 -87.4172
vt 0.0407 0.0034 0.0000
vt 0.0353 0.9993 87.4172
vt 0.0179 0.9992 0.0000
vt 0.0581 0.0035 0.0000
vt 0.0526 0.9995 0.0000
vt 0.0059 0.0031 0.0000
vt 0.0005 0.9990 0.0000
# 132 texture coords

o Cylinder002
g Cylinder002
usemtl wire_008008136
s 1
f 1/1/1 2/2/2 3/3/3 4/4/4 
f 2/2/2 5/5/5 6/6/6 3/3/3 
f 5/5/5 7/7/7 8/8/8 6/6/6 
f 7/9/7 9/10/9 10/11/10 8/12/8 
f 9/10/9 11/13/11 12/14/12 10/11/10 
f 11/13/11 1/1/1 4/4/4 12/14/12 
s 8
f 13/15/13 14/16/14 15/17/15 16/18/16 
f 17/19/17 18/20/18 14/16/14 13/15/13 
f 19/21/19 20/22/20 18/20/18 17/19/17 
f 21/23/21 22/24/22 20/25/20 19/26/19 
f 23/27/23 24/28/24 22/24/22 21/23/21 
f 16/18/16 15/17/15 24/28/24 23/27/23 
f 14/16/14 25/29/25 26/30/26 15/17/15 
f 18/20/18 27/31/27 25/29/25 14/16/14 
f 20/22/20 28/32/28 27/31/27 18/20/18 
f 22/24/22 29/33/29 28/34/28 20/25/20 
f 24/28/24 30/35/30 29/33/29 22/24/22 
f 15/17/15 26/30/26 30/35/30 24/28/24 
f 31/36/31 32/37/32 33/38/33 34/39/34 
f 35/40/35 36/41/36 32/37/32 31/36/31 
f 37/42/37 38/43/38 36/41/36 35/40/35 
f 39/44/39 40/45/40 38/46/38 37/47/37 
f 41/48/41 42/49/42 40/45/40 39/44/39 
f 34/39/34 33/38/33 42/49/42 41/48/41 
f 25/29/25 31/36/31 34/39/34 26/30/26 
f 27/31/27 35/40/35 31/36/31 25/29/25 
f 28/32/28 37/42/37 35/40/35 27/31/27 
f 29/33/29 39/44/39 37/47/37 28/34/28 
f 30/35/30 41/48/41 39/44/39 29/33/29 
f 26/30/26 34/39/34 41/48/41 30/35/30 
f 43/50/43 13/15/13 16/18/16 44/51/44 
f 45/52/45 17/19/17 13/15/13 43/50/43 
f 46/53/46 19/21/19 17/19/17 45/52/45 
f 47/54/47 21/23/21 19/26/19 46/55/46 
f 48/56/48 23/27/23 21/23/21 47/54/47 
f 44/51/44 16/18/16 23/27/23 48/56/48 
s 1
f 43/50/43 44/51/44 4/4/4 3/3/3 
f 44/51/44 48/56/48 12/14/12 4/4/4 
f 48/56/48 47/54/47 10/11/10 12/14/12 
f 47/54/47 46/55/46 8/12/8 10/11/10 
f 46/53/46 45/52/45 6/6/6 8/8/8 
f 45/52/45 43/50/43 3/3/3 6/6/6 
s 8
f 33/57/33 32/58/32 49/59/49 
f 32/58/32 36/41/36 49/59/49 
f 36/41/36 38/43/38 49/59/49 
f 38/60/38 40/61/40 49/59/49 
f 40/61/40 42/62/42 49/59/49 
f 42/62/42 33/57/33 49/59/49 
s 1
f 1/63/1 50/64/50 51/65/51 2/66/2 
f 2/66/2 51/65/51 52/67/52 5/68/5 
f 5/68/5 52/67/52 53/69/53 7/70/7 
f 7/71/7 53/72/53 54/73/54 9/74/9 
f 9/74/9 54/73/54 55/75/55 11/76/11 
f 11/76/11 55/75/55 50/64/50 1/63/1 
s 8
f 56/77/56 57/78/57 58/79/58 59/80/59 
f 60/81/60 56/77/56 59/80/59 61/82/61 
f 62/83/62 60/81/60 61/82/61 63/84/63 
f 64/85/64 62/86/62 63/87/63 65/88/65 
f 66/89/66 64/85/64 65/88/65 67/90/67 
f 57/78/57 66/89/66 67/90/67 58/79/58 
f 59/80/59 58/79/58 68/91/68 69/92/69 
f 61/82/61 59/80/59 69/92/69 70/93/70 
f 63/84/63 61/82/61 70/93/70 71/94/71 
f 65/88/65 63/87/63 71/95/71 72/96/72 
f 67/90/67 65/88/65 72/96/72 73/97/73 
f 58/79/58 67/90/67 73/97/73 68/91/68 
f 74/98/74 75/99/75 76/100/76 77/101/77 
f 78/102/78 74/98/74 77/101/77 79/103/79 
f 80/104/80 78/102/78 79/103/79 81/105/81 
f 82/106/82 80/107/80 81/108/81 83/109/83 
f 84/110/84 82/106/82 83/109/83 85/111/85 
f 75/99/75 84/110/84 85/111/85 76/100/76 
f 69/92/69 68/91/68 75/99/75 74/98/74 
f 70/93/70 69/92/69 74/98/74 78/102/78 
f 71/94/71 70/93/70 78/102/78 80/104/80 
f 72/96/72 71/95/71 80/107/80 82/106/82 
f 73/97/73 72/96/72 82/106/82 84/110/84 
f 68/91/68 73/97/73 84/110/84 75/99/75 
f 86/112/86 87/113/87 57/78/57 56/77/56 
f 88/114/88 86/112/86 56/77/56 60/81/60 
f 89/115/89 88/114/88 60/81/60 62/83/62 
f 90/116/90 89/117/89 62/86/62 64/85/64 
f 91/118/91 90/116/90 64/85/64 66/89/66 
f 87/113/87 91/118/91 66/89/66 57/78/57 
s 1
f 86/112/86 51/65/51 50/64/50 87/113/87 
f 87/113/87 50/64/50 55/75/55 91/118/91 
f 91/118/91 55/75/55 54/73/54 90/116/90 
f 90/116/90 54/73/54 53/72/53 89/117/89 
f 89/115/89 53/69/53 52/67/52 88/114/88 
f 88/114/88 52/67/52 51/65/51 86/112/86 
s 8
f 76/119/76 92/120/92 77/121/77 
f 77/121/77 92/120/92 79/103/79 
f 79/103/79 92/120/92 81/105/81 
f 81/122/81 92/120/92 83/123/83 
f 83/123/83 92/120/92 85/124/85 
f 85/124/85 92/120/92 76/119/76 
f 93/125/93 94/126/94 95/127/94 96/128/95 
f 94/126/94 97/129/96 98/130/96 95/127/94 
f 97/131/96 93/125/93 96/128/95 98/132/96 
# 87 polygons - 12 triangles

