%YAML 1.1
%TAG !u! tag:unity3d.com,2011:
--- !u!1001 &8303291877899259716
PrefabInstance:
  m_ObjectHideFlags: 0
  serializedVersion: 2
  m_Modification:
    m_TransformParent: {fileID: 0}
    m_Modifications:
    - target: {fileID: -927199367670048503, guid: 750d775b4bb25fc4b9e7cdaf82d1f301,
        type: 3}
      propertyPath: m_Name
      value: AnvilLow
      objectReference: {fileID: 0}
    - target: {fileID: -4216859302048453862, guid: 750d775b4bb25fc4b9e7cdaf82d1f301,
        type: 3}
      propertyPath: m_LocalPosition.x
      value: 197.20183
      objectReference: {fileID: 0}
    - target: {fileID: -4216859302048453862, guid: 750d775b4bb25fc4b9e7cdaf82d1f301,
        type: 3}
      propertyPath: m_LocalPosition.y
      value: 52.72
      objectReference: {fileID: 0}
    - target: {fileID: -4216859302048453862, guid: 750d775b4bb25fc4b9e7cdaf82d1f301,
        type: 3}
      propertyPath: m_LocalPosition.z
      value: 59.467
      objectReference: {fileID: 0}
    - target: {fileID: -4216859302048453862, guid: 750d775b4bb25fc4b9e7cdaf82d1f301,
        type: 3}
      propertyPath: m_LocalRotation.x
      value: 0
      objectReference: {fileID: 0}
    - target: {fileID: -4216859302048453862, guid: 750d775b4bb25fc4b9e7cdaf82d1f301,
        type: 3}
      propertyPath: m_LocalRotation.y
      value: -0
      objectReference: {fileID: 0}
    - target: {fileID: -4216859302048453862, guid: 750d775b4bb25fc4b9e7cdaf82d1f301,
        type: 3}
      propertyPath: m_LocalRotation.z
      value: -0
      objectReference: {fileID: 0}
    - target: {fileID: -4216859302048453862, guid: 750d775b4bb25fc4b9e7cdaf82d1f301,
        type: 3}
      propertyPath: m_LocalRotation.w
      value: 1
      objectReference: {fileID: 0}
    - target: {fileID: -4216859302048453862, guid: 750d775b4bb25fc4b9e7cdaf82d1f301,
        type: 3}
      propertyPath: m_RootOrder
      value: 0
      objectReference: {fileID: 0}
    - target: {fileID: -4216859302048453862, guid: 750d775b4bb25fc4b9e7cdaf82d1f301,
        type: 3}
      propertyPath: m_LocalEulerAnglesHint.x
      value: 0
      objectReference: {fileID: 0}
    - target: {fileID: -4216859302048453862, guid: 750d775b4bb25fc4b9e7cdaf82d1f301,
        type: 3}
      propertyPath: m_LocalEulerAnglesHint.y
      value: 0
      objectReference: {fileID: 0}
    - target: {fileID: -4216859302048453862, guid: 750d775b4bb25fc4b9e7cdaf82d1f301,
        type: 3}
      propertyPath: m_LocalEulerAnglesHint.z
      value: 0
      objectReference: {fileID: 0}
    - target: {fileID: -4216859302048453862, guid: 750d775b4bb25fc4b9e7cdaf82d1f301,
        type: 3}
      propertyPath: m_LocalScale.x
      value: 0.077971
      objectReference: {fileID: 0}
    - target: {fileID: -4216859302048453862, guid: 750d775b4bb25fc4b9e7cdaf82d1f301,
        type: 3}
      propertyPath: m_LocalScale.y
      value: 0.077971
      objectReference: {fileID: 0}
    - target: {fileID: -4216859302048453862, guid: 750d775b4bb25fc4b9e7cdaf82d1f301,
        type: 3}
      propertyPath: m_LocalScale.z
      value: 0.077971
      objectReference: {fileID: 0}
    - target: {fileID: 7779862857394827550, guid: 750d775b4bb25fc4b9e7cdaf82d1f301,
        type: 3}
      propertyPath: m_Materials.Array.data[0]
      value: 
      objectReference: {fileID: 2100000, guid: e8379bfcfda641949b4ba08f03e1a8c7, type: 2}
    m_RemovedComponents: []
  m_SourcePrefab: {fileID: 100100000, guid: 750d775b4bb25fc4b9e7cdaf82d1f301, type: 3}
